{
	"name": "Threef Orchestral Platform Extension ",
	"description": "Threef Orchestral Platform Extension",
	"author": "Ahmed Johari Jumali",
	"url": "",
	"version": "1.0",
	"provides": [
		"Threef\\Extension\\BaseExtensionServiceProvider"
	]
}
